A,1,YES
ABILITY,78,YES
ABLE,20,NO
ABOUT,59,NO
ABOVE,45,YES
ABSENCE,49,NO
ABSOLUTELY,132,NO
ACADEMIC,39,NO
ACCEPT,48,NO
ACCESS,50,NO
ACCIDENT,59,NO
ACCOMPANY,91,YES
ACCORDING,74,NO
ACCOUNT,77,NO
ACHIEVE,53,NO
ACHIEVEMENT,105,YES
ACID,17,NO
ACQUIRE,74,NO
ACROSS,75,NO
ACT,24,NO
ACTION,62,NO
ACTIVE,60,NO
ACTIVITY,109,NO
ACTUAL,58,NO
ACTUALLY,95,NO
ADD,9,NO
ADDITION,76,NO
ADDITIONAL,89,NO
ADDRESS,70,NO
ADMINISTRATION,166,NO
ADMIT,47,NO
ADOPT,56,NO
ADULT,58,NO
ADVANCE,50,NO
ADVANTAGE,75,NO
ADVICE,44,NO
ADVISE,60,NO
AFFAIR,41,NO
AFFECT,41,NO
AFFORD,50,NO
AFRAID,39,NO
AFTER,50,NO
AFTERNOON,108,NO
AFTERWARDS,115,NO
AGAIN,32,NO
AGAINST,71,NO
AGE,13,NO
AGENCY,55,YES
AGENT,47,NO
AGO,23,NO
AGREE,36,YES
AGREEMENT,88,NO
AHEAD,19,NO
AID,14,NO
AIM,23,NO
AIR,28,YES
AIRCRAFT,76,NO
ALL,25,NO
ALLOW,63,NO
ALMOST,80,NO
ALONE,47,NO
ALONG,49,NO
ALREADY,66,YES
ALRIGHT,75,NO
ALSO,47,NO
ALTERNATIVE,127,NO
ALTHOUGH,92,NO
ALWAYS,81,NO
AMONG,50,NO
AMONGST,89,NO
AMOUNT,84,NO
AN,15,YES
ANALYSIS,100,NO
ANCIENT,66,YES
AND,19,NO
ANIMAL,50,NO
ANNOUNCE,87,NO
ANNUAL,63,NO
ANOTHER,81,NO
ANSWER,80,NO
ANY,40,NO
ANYBODY,86,NO
ANYONE,74,NO
ANYTHING,98,NO
ANYWAY,89,NO
APART,56,NO
APPARENT,91,YES
APPARENTLY,128,NO
APPEAL,51,NO
APPEAR,57,NO
APPEARANCE,80,NO
APPLICATION,116,NO
APPLY,70,NO
APPOINT,91,YES
APPOINTMENT,143,NO
APPROACH,78,YES
APPROPRIATE,135,NO
APPROVE,93,NO
AREA,25,NO
ARGUE,52,NO
ARGUMENT,99,NO
ARISE,52,NO
ARM,32,NO
ARMY,57,NO
AROUND,73,NO
ARRANGE,64,NO
ARRANGEMENT,116,NO
ARRIVE,73,NO
ART,39,NO
ARTICLE,68,NO
ARTIST,87,NO
AS,20,NO
ASK,31,NO
ASPECT,64,NO
ASSEMBLY,96,NO
ASSESS,82,NO
ASSESSMENT,134,NO
ASSET,64,NO
ASSOCIATE,92,NO
ASSOCIATION,125,NO
ASSUME,78,YES
ASSUMPTION,147,NO
AT,21,YES
ATMOSPHERE,120,YES
ATTACH,53,NO
ATTACK,56,NO
ATTEMPT,95,NO
ATTEND,64,NO
ATTENTION,118,NO
ATTITUDE,100,NO
ATTRACT,83,NO
ATTRACTIVE,119,NO
AUDIENCE,62,NO
AUTHOR,83,NO
AUTHORITY,137,NO
AVAILABLE,65,NO
AVERAGE,59,NO
AVOID,51,NO
AWARD,47,NO
AWARE,48,NO
AWAY,50,NO
AYE,31,NO
BABY,30,NO
BACK,17,NO
BACKGROUND,96,NO
BAD,7,NO
BAG,10,YES
BALANCE,38,NO
BALL,27,NO
BAND,21,YES
BANK,28,YES
BAR,21,YES
BASE,27,NO
BASIC,34,NO
BASIS,50,NO
BATTLE,60,NO
BE,7,NO
BEAR,26,NO
BEAT,28,YES
BEAUTIFUL,97,NO
BECAUSE,56,NO
BECOME,43,NO
BED,11,NO
BEDROOM,72,NO
BEFORE,51,NO
BEGIN,37,NO
BEGINNING,81,NO
BEHAVIOUR,101,NO
BEHIND,42,NO
BELIEF,39,NO
BELIEVE,60,NO
BELONG,55,YES
BELOW,57,NO
BENEATH,55,YES
BENEFIT,61,NO
BESIDE,44,NO
BEST,46,NO
BETTER,70,NO
BETWEEN,74,NO
BEYOND,65,NO
BIG,18,NO
BILL,35,NO
BIND,29,NO
BIRD,33,NO
BIRTH,57,NO
BIT,31,NO
BLACK,29,NO
BLOCK,43,NO
BLOOD,48,NO
BLOODY,73,NO
BLOW,52,NO
BLUE,40,NO
BOARD,40,NO
BOAT,38,NO
BODY,46,NO
BONE,36,YES
BOOK,43,NO
BORDER,62,NO
BOTH,45,YES
BOTTLE,74,NO
BOTTOM,85,NO
BOX,41,NO
BOY,42,NO
BRAIN,44,NO
BRANCH,46,NO
BREAK,37,NO
BREATH,54,NO
BRIDGE,45,YES
BRIEF,40,NO
BRIGHT,64,NO
BRING,50,NO
BROAD,40,NO
BROTHER,86,NO
BUDGET,59,NO
BUILD,48,NO
BUILDING,78,YES
BURN,55,YES
BUS,42,NO
BUSINESS,108,NO
BUSY,67,NO
BUT,43,NO
BUY,48,NO
BY,27,NO
CABINET,54,NO
CALL,28,YES
CAMPAIGN,64,NO
CAN,18,NO
CANDIDATE,61,NO
CAPABLE,40,NO
CAPACITY,78,YES
CAPITAL,62,NO
CAR,22,NO
CARD,26,NO
CARE,27,NO
CAREER,50,NO
CAREFUL,66,YES
CAREFULLY,103,NO
CARRY,65,NO
CASE,28,YES
CASH,31,NO
CAT,24,NO
CATCH,35,NO
CATEGORY,94,NO
CAUSE,49,NO
CELL,32,NO
CENTRAL,73,NO
CENTRE,65,NO
CENTURY,106,NO
CERTAIN,70,NO
CERTAINLY,107,NO
CHAIN,35,NO
CHAIR,39,NO
CHAIRMAN,67,NO
CHALLENGE,67,NO
CHANCE,34,NO
CHANGE,38,NO
CHANNEL,57,NO
CHAPTER,71,NO
CHARACTER,77,NO
CHARACTERISTIC,137,NO
CHARGE,42,NO
CHEAP,33,NO
CHECK,30,NO
CHEMICAL,54,NO
CHIEF,31,NO
CHILD,36,YES
CHOICE,43,NO
CHOOSE,65,NO
CHURCH,61,NO
CIRCLE,50,NO
CIRCUMSTANCE,129,NO
CITIZEN,86,NO
CITY,57,NO
CIVIL,55,YES
CLAIM,38,NO
CLASS,54,NO
CLEAN,35,NO
CLEAR,39,NO
CLEARLY,76,NO
CLIENT,63,NO
CLIMB,39,NO
CLOSE,54,NO
CLOSELY,91,YES
CLOTHES,82,NO
CLUB,38,NO
COAL,31,NO
CODE,27,NO
COFFEE,40,NO
COLD,34,NO
COLLEAGUE,81,NO
COLLECT,70,NO
COLLECTION,108,NO
COLLEGE,59,NO
COLOUR,84,NO
COMBINATION,115,NO
COMBINE,61,NO
COME,36,YES
COMMENT,83,NO
COMMERCIAL,92,NO
COMMISSION,129,NO
COMMIT,73,NO
COMMITMENT,125,NO
COMMITTEE,103,NO
COMMON,73,NO
COMMUNICATION,150,NO
COMMUNITY,133,NO
COMPANY,87,NO
COMPARE,71,NO
COMPARISON,123,NO
COMPETITION,139,NO
COMPLETE,89,NO
COMPLETELY,126,NO
COMPLEX,88,NO
COMPONENT,115,NO
COMPUTER,111,NO
CONCENTRATE,118,NO
CONCENTRATION,151,NO
CONCEPT,76,NO
CONCERN,72,NO
CONCERNED,81,NO
CONCLUDE,77,NO
CONCLUSION,125,NO
CONDITION,103,NO
CONDUCT,80,NO
CONFERENCE,88,NO
CONFIDENCE,78,YES
CONFIRM,78,YES
CONFLICT,82,NO
CONGRESS,100,NO
CONNECT,74,NO
CONNECTION,112,NO
CONSEQUENCE,121,NO
CONSERVATIVE,153,YES
CONSIDER,87,NO
CONSIDERABLE,107,NO
CONSIDERATION,146,NO
CONSIST,99,NO
CONSTANT,106,NO
CONSTRUCTION,171,YES
CONSUMER,108,NO
CONTACT,76,NO
CONTAIN,76,NO
CONTENT,91,YES
CONTEXT,101,NO
CONTINUE,101,NO
CONTRACT,94,NO
CONTRAST,110,NO
CONTRIBUTE,127,NO
CONTRIBUTION,160,NO
CONTROL,97,NO
CONVENTION,131,NO
CONVERSATION,155,NO
COPY,59,NO
CORNER,73,NO
CORPORATE,111,NO
CORRECT,82,NO
COS,37,NO
COST,57,NO
COULD,55,YES
COUNCIL,77,NO
COUNT,73,NO
COUNTRY,116,NO
COUNTY,98,NO
COUPLE,72,NO
COURSE,81,NO
COURT,77,NO
COVER,63,NO
CREATE,52,NO
CREATION,85,NO
CREDIT,59,NO
CRIME,48,NO
CRIMINAL,79,NO
CRISIS,77,NO
CRITERION,111,NO
CRITICAL,75,NO
CRITICISM,103,NO
CROSS,74,NO
CROWD,63,NO
CRY,46,NO
CULTURAL,108,NO
CULTURE,100,NO
CUP,40,NO
CURRENT,99,NO
CURRENTLY,136,YES
CURRICULUM,139,NO
CUSTOMER,114,NO
CUT,44,NO
DAMAGE,31,NO
DANGER,49,NO
DANGEROUS,104,NO
DARK,34,NO
DATA,26,NO
DATE,30,NO
DAUGHTER,84,NO
DAY,30,NO
DEAD,14,NO
DEAL,22,NO
DEATH,38,NO
DEBATE,37,NO
DEBT,31,NO
DECADE,22,NO
DECIDE,30,NO
DECISION,78,YES
DECLARE,48,NO
DEEP,30,NO
DEFENCE,42,NO
DEFENDANT,73,NO
DEFINE,43,NO
DEFINITION,105,YES
DEGREE,44,NO
DELIVER,75,NO
DEMAND,41,NO
DEMOCRATIC,91,YES
DEMONSTRATE,134,NO
DENY,48,NO
DEPARTMENT,116,NO
DEPEND,48,NO
DEPUTY,91,YES
DERIVE,63,NO
DESCRIBE,65,NO
DESCRIPTION,132,NO
DESIGN,58,NO
DESIRE,60,NO
DESK,39,NO
DESPITE,78,YES
DESTROY,106,NO
DETAIL,51,NO
DETAILED,60,NO
DETERMINE,93,NO
DEVELOP,79,NO
DEVELOPMENT,131,NO
DEVICE,48,NO
DIE,18,NO
DIFFERENCE,75,NO
DIFFERENT,87,NO
DIFFICULT,90,NO
DIFFICULTY,115,NO
DINNER,64,NO
DIRECT,59,NO
DIRECTION,97,NO
DIRECTLY,96,NO
DIRECTOR,92,NO
DISAPPEAR,89,NO
DISCIPLINE,100,NO
DISCOVER,95,NO
DISCUSS,94,NO
DISCUSSION,132,NO
DISEASE,62,NO
DISPLAY,86,NO
DISTANCE,75,NO
DISTINCTION,136,YES
DISTRIBUTION,160,NO
DISTRICT,102,NO
DIVIDE,53,NO
DIVISION,101,NO
DO,19,NO
DOCTOR,75,NO
DOCUMENT,95,NO
DOG,26,NO
DOMESTIC,88,NO
DOOR,52,NO
DOUBLE,59,NO
DOUBT,62,NO
DOWN,56,NO
DRAW,46,NO
DRAWING,76,NO
DREAM,41,NO
DRESS,65,NO
DRINK,56,NO
DRIVE,58,NO
DRIVER,76,NO
DROP,53,NO
DRUG,50,NO
DRY,47,NO
DUE,30,NO
DURING,73,NO
DUTY,70,NO
EACH,17,NO
EAR,24,NO
EARLY,61,NO
EARN,38,NO
EARTH,52,NO
EASILY,71,NO
EAST,45,YES
EASY,50,NO
EAT,26,NO
ECONOMIC,77,NO
ECONOMY,90,NO
EDGE,21,YES
EDITOR,71,NO
EDUCATION,92,NO
EDUCATIONAL,105,YES
EFFECT,45,YES
EFFECTIVE,81,NO
EFFECTIVELY,118,NO
EFFORT,70,NO
EGG,19,NO
EITHER,65,NO
ELDERLY,81,NO
ELECTION,83,NO
ELEMENT,74,NO
ELSE,41,NO
ELSEWHERE,100,NO
EMERGE,53,NO
EMPHASIS,90,NO
EMPLOY,86,NO
EMPLOYEE,96,NO
EMPLOYER,109,NO
EMPLOYMENT,138,NO
EMPTY,79,NO
ENABLE,39,NO
ENCOURAGE,89,NO
END,23,NO
ENEMY,62,NO
ENERGY,74,NO
ENGINE,54,NO
ENGINEERING,107,NO
ENJOY,69,NO
ENOUGH,70,NO
ENSURE,82,NO
ENTER,62,NO
ENTERPRISE,129,NO
ENTIRE,71,NO
ENTIRELY,108,NO
ENTITLE,85,NO
ENTRY,82,NO
ENVIRONMENT,149,NO
ENVIRONMENTAL,162,NO
EQUAL,56,NO
EQUALLY,93,NO
EQUIPMENT,120,YES
ERROR,74,NO
ESCAPE,49,NO
ESPECIALLY,107,NO
ESSENTIAL,104,NO
ESTABLISH,95,NO
ESTABLISHMENT,147,NO
ESTATE,70,NO
ESTIMATE,92,NO
EVEN,46,NO
EVENING,76,NO
EVENT,66,YES
EVENTUALLY,137,NO
EVER,50,NO
EVERY,75,NO
EVERYBODY,121,NO
EVERYONE,109,NO
EVERYTHING,133,NO
EVIDENCE,67,NO
EXACTLY,90,NO
EXAMINATION,125,NO
EXAMINE,71,NO
EXAMPLE,76,NO
EXCELLENT,100,NO
EXCEPT,73,NO
EXCHANGE,67,NO
EXECUTIVE,114,NO
EXERCISE,88,NO
EXHIBITION,115,NO
EXIST,77,NO
EXISTENCE,104,NO
EXISTING,107,NO
EXPECT,73,NO
EXPECTATION,132,NO
EXPENDITURE,141,NO
EXPENSE,88,NO
EXPENSIVE,119,NO
EXPERIENCE,104,NO
EXPERIMENT,129,NO
EXPERT,88,NO
EXPLAIN,81,NO
EXPLANATION,131,NO
EXPLORE,95,NO
EXPRESS,106,NO
EXPRESSION,144,NO
EXTEND,72,NO
EXTENT,88,NO
EXTERNAL,99,NO
EXTRA,68,NO
EXTREMELY,127,NO
EYE,35,NO
FACE,15,YES
FACILITY,85,NO
FACT,30,NO
FACTOR,63,NO
FACTORY,88,NO
FAIL,28,YES
FAILURE,72,NO
FAIR,34,NO
FAIRLY,71,NO
FAITH,44,NO
FALL,31,NO
FAMILIAR,69,NO
FAMILY,66,YES
FAMOUS,75,NO
FAR,25,NO
FARM,38,NO
FARMER,61,NO
FASHION,72,NO
FAST,46,NO
FATHER,58,NO
FAVOUR,83,NO
FEAR,30,NO
FEATURE,76,NO
FEE,16,NO
FEEL,28,YES
FEELING,58,NO
FEMALE,42,NO
FEW,34,NO
FIELD,36,YES
FIGHT,50,NO
FIGURE,66,YES
FILE,32,NO
FILL,39,NO
FILM,40,NO
FINAL,42,NO
FINALLY,79,NO
FINANCE,52,NO
FINANCIAL,69,NO
FIND,33,NO
FINDING,63,NO
FINE,34,NO
FINGER,59,NO
FINISH,65,NO
FIRE,38,NO
FIRM,46,NO
FIRST,72,NO
FISH,42,NO
FIT,35,NO
FIX,39,NO
FLAT,39,NO
FLIGHT,62,NO
FLOOR,66,YES
FLOW,56,NO
FLOWER,79,NO
FLY,43,NO
FOCUS,64,NO
FOLLOW,83,NO
FOLLOWING,113,NO
FOOD,40,NO
FOOT,56,NO
FOOTBALL,83,NO
FOR,39,NO
FORCE,47,NO
FOREIGN,74,NO
FOREST,83,NO
FORGET,71,NO
FORM,52,NO
FORMAL,65,NO
FORMER,75,NO
FORWARD,85,NO
FOUNDATION,119,NO
FREE,34,NO
FREEDOM,66,YES
FREQUENTLY,143,NO
FRESH,56,NO
FRIEND,56,NO
FROM,52,NO
FRONT,73,NO
FRUIT,74,NO
FUEL,44,NO
FULL,51,NO
FULLY,76,NO
FUNCTION,102,NO
FUND,45,YES
FUNNY,80,NO
FURTHER,96,NO
FUTURE,91,YES
GAIN,31,NO
GAME,26,NO
GARDEN,49,NO
GAS,27,NO
GATE,33,NO
GATHER,59,NO
GENERAL,62,NO
GENERALLY,99,NO
GENERATE,75,NO
GENERATION,108,NO
GENTLEMAN,91,YES
GET,32,NO
GIRL,46,NO
GIVE,43,NO
GLASS,58,NO
GO,22,NO
GOAL,35,NO
GOD,26,NO
GOLD,38,NO
GOOD,41,NO
GOVERNMENT,133,NO
GRANT,60,NO
GREAT,51,NO
GREEN,49,NO
GREY,55,YES
GROUND,79,NO
GROUP,77,NO
GROW,63,NO
GROWING,93,NO
GROWTH,91,YES
GUEST,72,NO
GUIDE,46,NO
GUN,42,NO
HAIR,36,YES
HALF,27,NO
HALL,33,NO
HAND,27,NO
HANDLE,44,NO
HANG,30,NO
HAPPEN,60,NO
HAPPY,66,YES
HARD,31,NO
HARDLY,68,NO
HATE,34,NO
HAVE,36,YES
HE,13,NO
HEAD,18,NO
HEALTH,54,NO
HEAR,32,NO
HEART,52,NO
HEAT,34,NO
HEAVY,61,NO
HELL,37,NO
HELP,41,NO
HENCE,35,NO
HER,31,NO
HERE,36,YES
HERSELF,73,NO
HIDE,26,NO
HIGH,32,NO
HIGHLY,69,NO
HILL,41,NO
HIM,30,NO
HIMSELF,72,NO
HIS,36,YES
HISTORICAL,114,NO
HISTORY,114,NO
HIT,37,NO
HOLD,39,NO
HOLE,40,NO
HOLIDAY,74,NO
HOME,41,NO
HOPE,44,NO
HORSE,65,NO
HOSPITAL,100,NO
HOT,43,NO
HOTEL,60,NO
HOUR,62,NO
HOUSE,68,NO
HOUSEHOLD,107,NO
HOUSING,93,NO
HOW,46,NO
HOWEVER,96,NO
HUGE,41,NO
HUMAN,57,NO
HURT,67,NO
HUSBAND,69,NO
I,9,NO
IDEA,19,NO
IDENTIFY,92,NO
IF,15,YES
IGNORE,68,NO
ILLUSTRATE,137,NO
IMAGE,35,NO
IMAGINE,58,NO
IMMEDIATE,79,NO
IMMEDIATELY,116,NO
IMPACT,62,NO
IMPLICATION,121,NO
IMPLY,75,NO
IMPORTANCE,114,NO
IMPORTANT,126,NO
IMPOSE,77,NO
IMPOSSIBLE,119,NO
IMPRESSION,137,NO
IMPROVE,98,NO
IMPROVEMENT,150,NO
IN,23,NO
INCIDENT,78,YES
INCLUDE,68,NO
INCLUDING,93,NO
INCOME,59,NO
INCREASE,74,NO
INCREASED,78,YES
INCREASINGLY,136,YES
INDEED,41,NO
INDEPENDENT,110,NO
INDEX,56,NO
INDICATE,65,NO
INDIVIDUAL,105,YES
INDUSTRIAL,127,NO
INDUSTRY,130,NO
INFLUENCE,89,NO
INFORM,75,NO
INFORMATION,134,NO
INITIAL,74,NO
INITIATIVE,118,NO
INJURY,97,NO
INSIDE,60,NO
INSIST,90,NO
INSTANCE,85,NO
INSTEAD,72,NO
INSTITUTE,137,NO
INSTITUTION,170,NO
INSTRUCTION,162,NO
INSTRUMENT,153,YES
INSURANCE,104,NO
INTEND,66,YES
INTENTION,120,YES
INTEREST,110,NO
INTERESTED,119,NO
INTERESTING,140,NO
INTERNAL,93,NO
INTERNATIONAL,152,NO
INTERPRETATION,184,NO
INTERVIEW,125,NO
INTO,58,NO
INTRODUCE,109,NO
INTRODUCTION,162,NO
INVESTIGATE,131,NO
INVESTIGATION,164,NO
INVESTMENT,141,NO
INVITE,79,NO
INVOLVE,99,NO
IRON,56,NO
IS,28,YES
ISLAND,59,NO
ISSUE,73,NO
IT,29,NO
ITEM,47,NO
ITS,48,NO
ITSELF,71,NO
JOB,27,NO
JOIN,48,NO
JOINT,68,NO
JOURNEY,108,NO
JUDGE,47,NO
JUMP,60,NO
JUST,70,NO
JUSTICE,87,NO
KEEP,37,NO
KEY,41,NO
KID,24,NO
KILL,44,NO
KIND,38,NO
KING,41,NO
KITCHEN,70,NO
KNEE,35,NO
KNOW,63,NO
KNOWLEDGE,96,NO
LABOUR,69,NO
LACK,27,NO
LADY,42,NO
LAND,31,NO
LANGUAGE,68,NO
LARGE,43,NO
LARGELY,80,NO
LAST,52,NO
LATE,38,NO
LATER,56,NO
LATTER,76,NO
LAUGH,49,NO
LAUNCH,59,NO
LAW,36,YES
LAWYER,84,NO
LAY,38,NO
LEAD,22,NO
LEADER,45,YES
LEADERSHIP,97,NO
LEADING,52,NO
LEAF,24,NO
LEAGUE,51,NO
LEAN,32,NO
LEARN,50,NO
LEAST,57,NO
LEAVE,45,YES
LEFT,43,NO
LEG,24,NO
LEGAL,37,NO
LEGISLATION,123,NO
LENGTH,66,YES
LESS,55,YES
LET,37,NO
LETTER,80,NO
LEVEL,56,NO
LIABILITY,99,NO
LIBERAL,59,NO
LIBRARY,85,NO
LIE,26,NO
LIFE,32,NO
LIFT,47,NO
LIGHT,56,NO
LIKE,37,NO
LIKELY,74,NO
LIMIT,63,NO
LIMITED,72,NO
LINE,40,NO
LINK,46,NO
LIP,37,NO
LIST,60,NO
LISTEN,79,NO
LITERATURE,129,NO
LITTLE,78,YES
LIVE,48,NO
LIVING,73,NO
LOAN,42,NO
LOCAL,43,NO
LOCATION,89,NO
LONG,48,NO
LOOK,53,NO
LORD,49,NO
LOSE,51,NO
LOSS,65,NO
LOT,47,NO
LOVE,54,NO
LOVELY,91,YES
LOW,50,NO
LUNCH,58,NO
MACHINE,53,NO
MAGAZINE,76,NO
MAIN,37,NO
MAINLY,74,NO
MAINTAIN,81,NO
MAJOR,57,NO
MAJORITY,111,NO
MAKE,30,NO
MALE,31,NO
MAN,28,YES
MANAGE,41,NO
MANAGEMENT,93,NO
MANAGER,59,NO
MANNER,65,NO
MANY,53,NO
MAP,30,NO
MARK,43,NO
MARKET,68,NO
MARRIAGE,72,NO
MARRIED,68,NO
MARRY,75,NO
MASS,52,NO
MASTER,76,NO
MATCH,45,YES
MATERIAL,79,NO
MATTER,77,NO
MAY,39,NO
MAYBE,46,NO
ME,18,NO
MEAL,31,NO
MEAN,33,NO
MEANING,63,NO
MEANS,52,NO
MEANWHILE,90,NO
MEASURE,82,NO
MECHANISM,85,NO
MEDIA,32,NO
MEDICAL,47,NO
MEET,43,NO
MEETING,73,NO
MEMBER,56,NO
MEMBERSHIP,108,NO
MEMORY,89,NO
MENTAL,65,NO
MENTION,90,NO
MERELY,78,YES
MESSAGE,69,NO
METAL,51,NO
METHOD,65,NO
MIDDLE,47,NO
MIGHT,57,NO
MILE,39,NO
MILITARY,107,NO
MILK,45,YES
MIND,40,NO
MINE,41,NO
MINISTER,107,NO
MINISTRY,127,NO
MINUTE,82,NO
MISS,60,NO
MISTAKE,78,YES
MODEL,49,NO
MODERN,69,NO
MODULE,70,NO
MOMENT,80,NO
MONEY,72,NO
MONTH,70,NO
MORE,51,NO
MORNING,90,NO
MOST,67,NO
MOTHER,79,NO
MOTION,86,NO
MOTOR,81,NO
MOUNTAIN,107,NO
MOUTH,77,NO
MOVE,55,YES
MOVEMENT,107,NO
MUCH,45,YES
MURDER,79,NO
MUSEUM,92,NO
MUSIC,65,NO
MUST,73,NO
MY,38,NO
MYSELF,80,NO
NAME,33,NO
NARROW,89,NO
NATION,73,NO
NATIONAL,86,NO
NATURAL,87,NO
NATURE,79,NO
NEAR,38,NO
NEARLY,75,NO
NECESSARILY,130,NO
NECESSARY,109,NO
NECK,33,NO
NEED,28,YES
NEGOTIATION,129,NO
NEIGHBOUR,99,NO
NEITHER,79,NO
NETWORK,106,NO
NEVER,64,NO
NEVERTHELESS,152,NO
NEW,42,NO
NEWS,61,NO
NEWSPAPER,117,NO
NEXT,63,NO
NICE,31,NO
NIGHT,58,NO
NO,29,NO
NOBODY,75,NO
NOD,33,NO
NOISE,62,NO
NONE,48,NO
NOR,47,NO
NORMAL,73,NO
NORMALLY,110,NO
NORTH,75,NO
NORTHERN,112,NO
NOSE,53,NO
NOT,49,NO
NOTE,54,NO
NOTHING,87,NO
NOTICE,66,YES
NOTION,87,NO
NOW,52,NO
NUCLEAR,74,NO
NUMBER,73,NO
NURSE,77,NO
OBJECT,55,YES
OBJECTIVE,91,YES
OBSERVATION,140,NO
OBSERVE,86,NO
OBTAIN,61,NO
OBVIOUS,103,NO
OBVIOUSLY,140,NO
OCCASION,79,NO
OCCUR,60,NO
ODD,23,NO
OF,21,YES
OFF,27,NO
OFFENCE,54,NO
OFFER,50,NO
OFFICE,44,NO
OFFICER,62,NO
OFFICIAL,61,NO
OFTEN,60,NO
OIL,36,YES
OKAY,52,NO
OLD,31,NO
ON,29,NO
ONCE,37,NO
ONE,34,NO
ONLY,66,YES
ONTO,64,NO
OPEN,50,NO
OPERATE,80,NO
OPERATION,113,NO
OPINION,92,NO
OPPORTUNITY,189,NO
OPPOSITION,148,NO
OPTION,89,NO
OR,33,NO
ORDER,60,NO
ORDINARY,104,NO
ORGANISATION,142,NO
ORGANISE,88,NO
ORGANIZATION,149,NO
ORIGIN,72,NO
ORIGINAL,85,NO
OTHER,66,YES
OTHERWISE,122,NO
OUGHT,71,NO
OUR,54,NO
OURSELVES,136,YES
OUT,56,NO
OUTCOME,92,NO
OUTPUT,113,NO
OUTSIDE,93,NO
OVER,60,NO
OVERALL,85,NO
OWN,52,NO
OWNER,75,NO
PACKAGE,44,NO
PAGE,29,NO
PAIN,40,NO
PAINT,60,NO
PAINTING,90,NO
PAIR,44,NO
PANEL,48,NO
PAPER,56,NO
PARENT,74,NO
PARK,46,NO
PARLIAMENT,109,NO
PART,55,YES
PARTICULAR,119,NO
PARTICULARLY,156,NO
PARTLY,92,NO
PARTNER,92,NO
PARTY,80,NO
PASS,55,YES
PASSAGE,68,NO
PAST,56,NO
PATH,45,YES
PATIENT,85,NO
PATTERN,94,NO
PAY,42,NO
PAYMENT,94,NO
PEACE,30,NO
PENSION,92,NO
PEOPLE,69,NO
PER,39,NO
PERCENT,81,NO
PERFECT,73,NO
PERFORM,91,YES
PERFORMANCE,114,NO
PERHAPS,83,NO
PERIOD,67,NO
PERMANENT,106,NO
PERSON,87,NO
PERSONAL,100,NO
PERSUADE,89,NO
PHASE,49,NO
PHONE,58,NO
PHOTOGRAPH,124,NO
PHYSICAL,93,NO
PICK,39,NO
PICTURE,92,NO
PIECE,38,NO
PLACE,37,NO
PLAN,43,NO
PLANNING,87,NO
PLANT,63,NO
PLASTIC,80,NO
PLATE,54,NO
PLAY,54,NO
PLAYER,77,NO
PLEASE,58,NO
PLEASURE,97,NO
PLENTY,92,NO
PLUS,68,NO
POCKET,70,NO
POINT,74,NO
POLICE,60,NO
POLICY,80,NO
POLITICAL,97,NO
POLITICS,103,NO
POOL,58,NO
POOR,64,NO
POPULAR,99,NO
POPULATION,139,NO
POSITION,117,NO
POSITIVE,115,NO
POSSIBILITY,155,NO
POSSIBLE,97,NO
POSSIBLY,117,NO
POST,70,NO
POTENTIAL,112,NO
POUND,70,NO
POWER,77,NO
POWERFUL,116,NO
PRACTICAL,83,NO
PRACTICE,75,NO
PREFER,68,NO
PREPARE,79,NO
PRESENCE,85,NO
PRESENT,97,NO
PRESIDENT,110,NO
PRESS,77,NO
PRESSURE,121,NO
PRETTY,104,NO
PREVENT,100,NO
PREVIOUS,125,NO
PREVIOUSLY,162,NO
PRICE,51,NO
PRIMARY,100,NO
PRIME,61,NO
PRINCIPLE,102,NO
PRIORITY,130,NO
PRISON,91,YES
PRISONER,114,NO
PRIVATE,91,YES
PROBABLY,91,YES
PROBLEM,81,NO
PROCEDURE,105,YES
PROCESS,95,NO
PRODUCE,82,NO
PRODUCT,97,NO
PRODUCTION,135,NO
PROFESSIONAL,149,NO
PROFIT,84,NO
PROGRAM,88,NO
PROGRAMME,106,NO
PROGRESS,117,NO
PROJECT,87,NO
PROMISE,95,NO
PROMOTE,102,NO
PROPER,88,NO
PROPERLY,125,NO
PROPERTY,133,NO
PROPORTION,156,NO
PROPOSE,104,NO
PROPOSAL,112,NO
PROSPECT,112,NO
PROTECT,97,NO
PROTECTION,135,NO
PROVE,76,NO
PROVIDE,89,NO
PROVIDED,93,NO
PROVISION,137,NO
PUB,39,NO
PUBLIC,63,NO
PUBLICATION,122,NO
PUBLISH,87,NO
PULL,61,NO
PUPIL,74,NO
PURPOSE,110,NO
PUSH,64,NO
PUT,57,NO
QUALITY,105,YES
QUARTER,100,NO
QUESTION,120,YES
QUICK,61,NO
QUICKLY,98,NO
QUIET,72,NO
QUITE,72,NO
RACE,27,NO
RADIO,47,NO
RAILWAY,89,NO
RAIN,42,NO
RAISE,52,NO
RANGE,45,YES
RAPIDLY,85,NO
RARE,42,NO
RATE,44,NO
RATHER,70,NO
REACH,35,NO
REACTION,85,NO
READ,28,YES
READER,51,NO
READING,58,NO
READY,53,NO
REAL,36,YES
REALISE,69,NO
REALITY,90,NO
REALIZE,76,NO
REALLY,73,NO
REASON,72,NO
REASONABLE,92,NO
RECALL,51,NO
RECEIVE,67,NO
RECENT,65,NO
RECENTLY,102,NO
RECOGNISE,95,NO
RECOGNITION,129,NO
RECOGNIZE,102,NO
RECOMMEND,90,NO
RECORD,63,NO
RECOVER,86,NO
RED,27,NO
REDUCE,56,NO
REDUCTION,109,NO
REFER,52,NO
REFERENCE,79,NO
REFLECT,69,NO
REFORM,75,NO
REFUSE,74,NO
REGARD,53,NO
REGION,68,NO
REGIONAL,81,NO
REGULAR,82,NO
REGULATION,122,NO
REJECT,61,NO
RELATE,61,NO
RELATION,94,NO
RELATIONSHIP,146,NO
RELATIVE,92,NO
RELATIVELY,129,NO
RELEASE,65,NO
RELEVANT,97,NO
RELIEF,55,YES
RELIGION,89,NO
RELIGIOUS,115,NO
RELY,60,NO
REMAIN,60,NO
REMEMBER,79,NO
REMIND,63,NO
REMOVE,78,YES
REPEAT,65,NO
REPLACE,60,NO
REPLY,76,NO
REPORT,92,NO
REPRESENT,120,YES
REPRESENTATION,179,NO
REPRESENTATIVE,177,NO
REQUEST,105,YES
REQUIRE,93,NO
REQUIREMENT,145,NO
RESEARCH,77,NO
RESOURCE,104,NO
RESPECT,86,NO
RESPOND,91,YES
RESPONSE,111,NO
RESPONSIBILITY,192,NO
RESPONSIBLE,134,NO
REST,62,NO
RESTAURANT,137,NO
RESULT,95,NO
RETAIN,67,NO
RETURN,96,NO
REVEAL,63,NO
REVENUE,90,NO
REVIEW,82,NO
REVOLUTION,151,NO
RICH,38,NO
RIDE,36,YES
RIGHT,62,NO
RING,48,NO
RISE,51,NO
RISK,57,NO
RIVER,72,NO
ROAD,38,NO
ROCK,47,NO
ROLE,50,NO
ROLL,57,NO
ROOF,54,NO
ROOM,61,NO
ROUND,72,NO
ROUTE,79,NO
ROW,56,NO
ROYAL,71,NO
RULE,56,NO
RUN,53,NO
RURAL,70,NO
SAFE,31,NO
SAFETY,76,NO
SALE,37,NO
SAME,38,NO
SAMPLE,66,YES
SATISFY,99,NO
SAVE,47,NO
SAY,45,YES
SCALE,40,NO
SCENE,46,NO
SCHEME,53,NO
SCHOOL,72,NO
SCIENCE,58,NO
SCIENTIFIC,97,NO
SCIENTIST,118,NO
SCORE,60,NO
SCREEN,64,NO
SEA,25,NO
SEARCH,54,NO
SEASON,73,NO
SEAT,45,YES
SECOND,60,NO
SECONDARY,104,NO
SECRETARY,114,NO
SECTION,85,NO
SECTOR,80,NO
SECURE,71,NO
SECURITY,120,YES
SEE,29,NO
SEEK,40,NO
SEEM,42,NO
SELECT,64,NO
SELECTION,102,NO
SELL,48,NO
SEND,42,NO
SENIOR,80,NO
SENSE,62,NO
SENTENCE,85,NO
SEPARATE,85,NO
SEQUENCE,89,NO
SERIES,75,NO
SERIOUS,106,NO
SERIOUSLY,143,NO
SERVANT,99,NO
SERVE,69,NO
SERVICE,81,NO
SESSION,100,NO
SET,44,NO
SETTLE,81,NO
SETTLEMENT,133,NO
SEVERAL,82,NO
SEVERE,74,NO
SEX,48,NO
SEXUAL,82,NO
SHAKE,44,NO
SHALL,52,NO
SHAPE,49,NO
SHARE,51,NO
SHE,32,NO
SHEET,57,NO
SHIP,52,NO
SHOE,47,NO
SHOOT,77,NO
SHOP,58,NO
SHORT,80,NO
SHOT,62,NO
SHOULD,79,NO
SHOULDER,102,NO
SHOUT,83,NO
SHOW,65,NO
SHUT,68,NO
SIDE,37,NO
SIGHT,63,NO
SIGN,49,NO
SIGNAL,62,NO
SIGNIFICANCE,99,NO
SIGNIFICANT,111,NO
SILENCE,67,NO
SIMILAR,81,NO
SIMPLE,74,NO
SIMPLY,94,NO
SINCE,50,NO
SING,49,NO
SINGLE,66,YES
SIR,46,NO
SISTER,90,NO
SIT,48,NO
SITE,53,NO
SITUATION,128,NO
SIZE,59,NO
SKILL,63,NO
SKIN,53,NO
SKY,55,YES
SLEEP,57,NO
SLIGHTLY,112,NO
SLIP,56,NO
SLOW,69,NO
SLOWLY,106,NO
SMALL,57,NO
SMILE,58,NO
SO,34,NO
SOCIAL,59,NO
SOCIETY,96,NO
SOFT,60,NO
SOFTWARE,107,NO
SOIL,55,YES
SOLDIER,82,NO
SOLICITOR,120,YES
SOLUTION,125,NO
SOME,52,NO
SOMEBODY,98,NO
SOMEONE,86,NO
SOMETHING,110,NO
SOMETIMES,118,NO
SOMEWHAT,104,NO
SOMEWHERE,111,NO
SON,48,NO
SONG,55,YES
SOON,63,NO
SORRY,95,NO
SORT,72,NO
SOUND,73,NO
SOURCE,81,NO
SOUTH,83,NO
SOUTHERN,120,YES
SPACE,44,NO
SPEAK,52,NO
SPEAKER,75,NO
SPECIAL,65,NO
SPECIES,76,NO
SPECIFIC,70,NO
SPEECH,56,NO
SPEED,49,NO
SPEND,58,NO
SPIRIT,91,YES
SPORT,88,NO
SPOT,70,NO
SPREAD,63,NO
SPRING,83,NO
STAFF,52,NO
STAGE,52,NO
STAND,58,NO
STANDARD,81,NO
STAR,58,NO
START,78,YES
STATE,65,NO
STATEMENT,117,NO
STATION,98,NO
STATUS,100,NO
STAY,65,NO
STEAL,57,NO
STEP,60,NO
STICK,62,NO
STILL,72,NO
STOCK,68,NO
STONE,73,NO
STOP,70,NO
STORE,77,NO
STORY,97,NO
STRAIGHT,102,NO
STRANGE,84,NO
STRATEGY,115,NO
STREET,87,NO
STRENGTH,111,NO
STRIKE,82,NO
STRONG,93,NO
STRONGLY,130,NO
STRUCTURE,145,NO
STUDENT,103,NO
STUDIO,88,NO
STUDY,89,NO
STUFF,72,NO
STYLE,81,NO
SUBJECT,80,NO
SUBSTANTIAL,138,NO
SUCCEED,60,NO
SUCCESS,89,NO
SUCCESSFUL,128,NO
SUCH,51,NO
SUDDENLY,104,NO
SUFFER,75,NO
SUFFICIENT,112,NO
SUGGEST,98,NO
SUGGESTION,136,YES
SUITABLE,89,NO
SUM,53,NO
SUMMER,89,NO
SUN,54,NO
SUPPLY,109,NO
SUPPORT,125,NO
SUPPOSE,111,NO
SURE,63,NO
SURELY,100,NO
SURFACE,73,NO
SURPRISE,125,NO
SURROUND,130,NO
SURVEY,110,NO
SURVIVE,116,NO
SWITCH,82,NO
SYSTEM,101,NO
TABLE,40,NO
TAKE,37,NO
TALK,44,NO
TALL,45,YES
TAPE,42,NO
TARGET,71,NO
TASK,51,NO
TAX,45,YES
TEA,26,NO
TEACH,37,NO
TEACHER,60,NO
TEACHING,67,NO
TEAM,39,NO
TEAR,44,NO
TECHNICAL,75,NO
TECHNIQUE,102,NO
TECHNOLOGY,124,NO
TELEPHONE,100,NO
TELEVISION,130,NO
TELL,49,NO
TEMPERATURE,142,NO
TEND,43,NO
TERM,56,NO
TERMS,75,NO
TERRIBLE,89,NO
TEST,64,NO
TEXT,69,NO
THAN,43,NO
THANK,54,NO
THANKS,73,NO
THAT,49,NO
THE,33,NO
THEATRE,77,NO
THEIR,60,NO
THEM,46,NO
THEME,51,NO
THEMSELVES,128,NO
THEN,47,NO
THEORY,91,YES
THERE,56,NO
THEREFORE,100,NO
THESE,57,NO
THEY,58,NO
THIN,51,NO
THING,58,NO
THINK,62,NO
THIS,56,NO
THOSE,67,NO
THOUGH,79,NO
THOUGHT,99,NO
THREAT,72,NO
THREATEN,91,YES
THROUGH,97,NO
THROUGHOUT,153,YES
THROW,84,NO
THUS,68,NO
TICKET,68,NO
TIME,47,NO
TINY,68,NO
TITLE,66,YES
TO,35,NO
TODAY,65,NO
TOGETHER,98,NO
TOMORROW,137,NO
TONE,54,NO
TONIGHT,93,NO
TOO,50,NO
TOOL,62,NO
TOOTH,78,YES
TOP,51,NO
TOTAL,68,NO
TOTALLY,105,YES
TOUCH,67,NO
TOUR,74,NO
TOWARDS,100,NO
TOWN,72,NO
TRACK,53,NO
TRADE,48,NO
TRADITION,110,NO
TRADITIONAL,123,NO
TRAFFIC,63,NO
TRAIN,62,NO
TRAINING,92,NO
TRANSFER,101,NO
TRANSPORT,141,NO
TRAVEL,78,YES
TREAT,64,NO
TREATMENT,116,NO
TREATY,89,NO
TREE,48,NO
TREND,61,NO
TRIAL,60,NO
TRIP,63,NO
TROOP,84,NO
TROUBLE,93,NO
TRUE,64,NO
TRUST,98,NO
TRUTH,87,NO
TRY,63,NO
TURN,73,NO
TWICE,60,NO
TYPE,66,YES
TYPICAL,86,NO
UNABLE,55,YES
UNDER,62,NO
UNDERSTAND,120,YES
UNDERSTANDING,150,NO
UNDERTAKE,99,NO
UNEMPLOYMENT,173,NO
UNFORTUNATELY,192,NO
UNION,73,NO
UNIT,64,NO
UNITED,73,NO
UNIVERSITY,162,NO
UNLESS,90,NO
UNLIKELY,109,NO
UNTIL,76,NO
UP,37,NO
UPON,66,YES
UPPER,76,NO
URBAN,56,NO
US,40,NO
USE,45,YES
USED,49,NO
USEFUL,84,NO
USER,63,NO
USUAL,74,NO
USUALLY,111,NO
VALUE,61,NO
VARIATION,109,NO
VARIETY,100,NO
VARIOUS,105,YES
VARY,66,YES
VAST,62,NO
VEHICLE,64,NO
VERSION,102,NO
VERY,70,NO
VIA,32,NO
VICTIM,76,NO
VICTORY,112,NO
VIDEO,55,YES
VIEW,59,NO
VILLAGE,68,NO
VIOLENCE,85,NO
VISION,88,NO
VISIT,79,NO
VISITOR,112,NO
VITAL,64,NO
VOICE,54,NO
VOLUME,88,NO
VOTE,62,NO
WAGE,36,YES
WAIT,53,NO
WALK,47,NO
WALL,48,NO
WANT,58,NO
WAR,42,NO
WARM,55,YES
WARN,56,NO
WASH,51,NO
WATCH,55,YES
WATER,67,NO
WAVE,51,NO
WAY,49,NO
WE,28,YES
WEAK,40,NO
WEAPON,74,NO
WEAR,47,NO
WEATHER,80,NO
WEEK,44,NO
WEEKEND,67,NO
WEIGHT,72,NO
WELCOME,76,NO
WELFARE,70,NO
WELL,52,NO
WEST,67,NO
WESTERN,104,NO
WHAT,52,NO
WHATEVER,102,NO
WHEN,50,NO
WHERE,59,NO
WHEREAS,79,NO
WHETHER,87,NO
WHICH,51,NO
WHILE,57,NO
WHILST,91,YES
WHITE,65,NO
WHO,46,NO
WHOLE,63,NO
WHOM,59,NO
WHOSE,70,NO
WHY,56,NO
WIDE,41,NO
WIDELY,78,YES
WIFE,43,NO
WILD,48,NO
WILL,56,NO
WIN,46,NO
WIND,50,NO
WINDOW,88,NO
WINE,51,NO
WING,53,NO
WINNER,83,NO
WINTER,89,NO
WISH,59,NO
WITH,60,NO
WITHDRAW,106,NO
WITHIN,83,NO
WITHOUT,116,NO
WOMAN,66,YES
WONDER,79,NO
WONDERFUL,118,NO
WOOD,57,NO
WORD,60,NO
WORK,67,NO
WORKER,90,NO
WORKING,97,NO
WORKS,86,NO
WORLD,72,NO
WORRY,99,NO
WORTH,84,NO
WOULD,75,NO
WRITE,75,NO
WRITER,93,NO
WRITING,100,NO
WRONG,77,NO
YARD,48,NO
YEAH,39,NO
YEAR,49,NO
YES,49,NO
YESTERDAY,122,NO
YET,50,NO
YOU,61,NO
YOUNG,82,NO
YOUR,79,NO
YOURSELF,121,NO
YOUTH,89,NO
