1035,3
1081,3
1128,3
1176,3
1225,3
1275,3
1431,3
1540,3
1596,3
1653,3
1711,3
1770,3
1830,3
1891,3
2016,3
2080,3
2145,3
2211,3
2278,3
2346,3
2415,3
2556,3
2628,3
2850,3
2926,3
3081,3
3160,3
3240,3
3321,3
3570,3
3655,3
3741,3
3916,3
4095,3
4186,3
4371,3
4465,3
4560,3
4656,3
4753,3
4950,3
5050,3
5151,3
5253,3
5356,3
5565,3
5671,3
5778,3
5886,3
5995,3
6216,3
6441,3
6555,3
6786,3
7021,3
7140,3
7381,3
7626,3
7750,3
7875,3
8128,3
8256,3
8515,3
8646,3
8778,3
8911,3
9045,3
9180,3
9591,3
1024,4
1089,4
1156,4
1225,4
1296,4
1444,4
1521,4
1681,4
1764,4
1849,4
2025,4
2116,4
2916,4
3025,4
3136,4
3249,4
3364,4
3721,4
3969,4
4096,4
4356,4
4489,4
4624,4
4761,4
5041,4
5184,4
5329,4
5625,4
5776,4
5929,4
6084,4
6241,4
6561,4
6724,4
7056,4
7396,4
7569,4
7744,4
8281,4
8649,4
8836,4
9025,4
9216,4
1080,5
1162,5
1247,5
1426,5
1520,5
1617,5
1717,5
1820,5
2035,5
2147,5
2380,5
2625,5
2882,5
3015,5
3151,5
3577,5
3725,5
4030,5
4187,5
4347,5
4510,5
4676,5
5017,5
5192,5
5370,5
5551,5
5922,5
6112,5
7315,5
7526,5
7740,5
8177,5
8626,5
8855,5
9560,5
1035,6
1128,6
1225,6
1431,6
1540,6
1653,6
1770,6
1891,6
2016,6
2145,6
2278,6
2415,6
2556,6
2850,6
3160,6
3321,6
3655,6
4186,6
4371,6
4560,6
4753,6
4950,6
5151,6
5356,6
5565,6
5778,6
5995,6
6216,6
6441,6
7140,6
7381,6
7626,6
7875,6
8128,6
8646,6
8911,6
9180,6
1071,7
1177,7
1288,7
1525,7
1651,7
1782,7
2059,7
2512,7
2673,7
2839,7
3010,7
3186,7
3367,7
3553,7
4141,7
4558,7
4774,7
4995,7
5221,7
5688,7
6175,7
6426,7
6943,7
7756,7
8037,7
8614,7
8910,7
9211,7
9517,7
1045,8
1160,8
1281,8
1541,8
1680,8
1825,8
2133,8
2296,8
2465,8
2640,8
2821,8
4033,8
4485,8
4720,8
4961,8
5720,8
5985,8
6256,8
6533,8
8640,8
8965,8
9296,8
9633,8
